[{"Tahun":2014,"LPP":"0.43%","Jumlah Penduduk":81635,"LperOperH":2.2,"LperH":179597,"MperH":179.597,"sampah_daerah":"48%","sampah_terkumpul":"90%","sampah_masuk":77.585904},
	{"Tahun":2015,"LPP":"0.43%","Jumlah Penduduk":81987,"LperOperH":2.2,"LperH":180371.4,"MperH":180.3714,"sampah_daerah":"48%","sampah_terkumpul":"90%","sampah_masuk":77.9204448},
	{"Tahun":2016,"LPP":"0.43%","Jumlah Penduduk":82340,"LperOperH":2.2,"LperH":181146.997,"MperH":181.146997,"sampah_daerah":"48%","sampah_terkumpul":"90%","sampah_masuk":78.25550271},
	{"Tahun":2017,"LPP":"0.43%","Jumlah Penduduk":82694,"LperOperH":2.2,"LperH":181925.9291,"MperH":181.9259291,"sampah_daerah":"48%","sampah_terkumpul":"90%","sampah_masuk":78.59200137},
	{"Tahun":2018,"LPP":"0.43%","Jumlah Penduduk":83049,"LperOperH":2.2,"LperH":182708.2106,"MperH":182.7082106,"sampah_daerah":"48%","sampah_terkumpul":"90%","sampah_masuk":78.92994698},
	{"Tahun":2019,"LPP":"0.43%","Jumlah Penduduk":83406,"LperOperH":2.2,"LperH":183493.8559,"MperH":183.4938559,"sampah_daerah":"48%","sampah_terkumpul":"90%","sampah_masuk":79.26934575},
	{"Tahun":2020,"LPP":"0.43%","Jumlah Penduduk":83765,"LperOperH":2.2,"LperH":184282.8795,"MperH":184.2828795,"sampah_daerah":"48%","sampah_terkumpul":"90%","sampah_masuk":79.61020394},
	{"Tahun":2021,"LPP":"0.43%","Jumlah Penduduk":84125,"LperOperH":2.2,"LperH":185075.2959,"MperH":185.0752959,"sampah_daerah":"48%","sampah_terkumpul":"90%","sampah_masuk":79.95252782},
	{"Tahun":2022,"LPP":"0.43%","Jumlah Penduduk":84487,"LperOperH":2.2,"LperH":185871.1196,"MperH":185.8711196,"sampah_daerah":"48%","sampah_terkumpul":"90%","sampah_masuk":80.29632369},
	{"Tahun":2023,"LPP":"0.43%","Jumlah Penduduk":84850,"LperOperH":2.2,"LperH":186670.3655,"MperH":186.6703655,"sampah_daerah":"48%","sampah_terkumpul":"90%","sampah_masuk":80.64159788},
	{"Tahun":2024,"LPP":"0.43%","Jumlah Penduduk":85215,"LperOperH":2.2,"LperH":187473.048,"MperH":187.473048,"sampah_daerah":"48%","sampah_terkumpul":"90%","sampah_masuk":80.98835675},
	{"Tahun":2025,"LPP":"0.43%","Jumlah Penduduk":85581,"LperOperH":2.2,"LperH":188279.1821,"MperH":188.2791821,"sampah_daerah":"48%","sampah_terkumpul":"90%","sampah_masuk":81.33660668},
	{"Tahun":2026,"LPP":"0.43%","Jumlah Penduduk":85949,"LperOperH":2.2,"LperH":189088.7826,"MperH":189.0887826,"sampah_daerah":"48%","sampah_terkumpul":"90%","sampah_masuk":81.68635409},
	{"Tahun":2027,"LPP":"0.43%","Jumlah Penduduk":86319,"LperOperH":2.2,"LperH":189901.8644,"MperH":189.9018644,"sampah_daerah":"48%","sampah_terkumpul":"90%","sampah_masuk":82.03760541},
	{"Tahun":2028,"LPP":"0.43%","Jumlah Penduduk":86690,"LperOperH":2.2,"LperH":190718.4424,"MperH":190.7184424,"sampah_daerah":"48%","sampah_terkumpul":"90%","sampah_masuk":82.39036712},
	{"Tahun":2029,"LPP":"0.43%","Jumlah Penduduk":87063,"LperOperH":2.2,"LperH":191538.5317,"MperH":191.5385317,"sampah_daerah":"48%","sampah_terkumpul":"90%","sampah_masuk":82.7446457}]